Plotting II - Changing Aesthetics - Visualization in R
…
Just like last class, you are going to read in the data using the read_csv() function. You need to go get the data from the top of this page and save it somewhere sensible on your computer. As before, this is a comma-separated-file that you can check out in Excel if that is more comfortable for you.

On my computer, the read function looks like this:

df <- read_csv("~/Documents/SEA/S285_OC/dcv/R/classes/data/S258_surfsamp.csv")

As before, you will need to replace the path I have given with the path on your computer.

Initial look at the data

Like last time, we can get an initial look at this data in a few different ways. The following prints out the start of the data:

df

## # A tibble: 35 x 12
##    station dttm                      lon   lat  temp   sal fluor   chla    no3
##    <chr>   <dttm>                  <dbl> <dbl> <dbl> <dbl> <dbl>  <dbl>  <dbl>
##  1 SS-001  2015-03-27 00:25:00.000  174. -43.4  14.4  34.6  3.07 0.416  0.318 
##  2 SS-002  2015-03-27 23:39:00.000  176. -43.2  16.2  34.9  5.56 1.10   0.0465
##  3 SS-003  2015-03-29 00:25:00.000  179. -43.4  16    34.7  7.48 0.960  0.179 
##  4 SS-004  2015-03-30 00:15:00.000 -179. -43.8  16.3  33.2 NA    0.310  0.181 
##  5 SS-005  2015-04-02 23:56:00.000 -176. -44.1  16    34.9  4.55 0.426  0.743 
##  6 SS-006  2015-04-03 00:04:00.000 -173. -43.3  16.2  35.1  3.29 0.284  0.202 
##  7 SS-007  2015-04-04 00:05:00.000 -170. -43.0  16.4  35.1  2.76 0.164  0.0242
##  8 SS-008  2015-04-05 00:14:00.000 -166. -43.0  15.7  34.7  5.12 0.120  1.07  
##  9 SS-009  2015-04-06 00:05:00.000 -164. -42.3  16.1  34.7  4.29 0.0710 0.696 
## 10 SS-010  2015-04-07 00:13:00.000 -162. -41.6  16.4  34.6  3.4  0.0599 0.966 
## # … with 25 more rows, and 3 more variables: po4 <dbl>, pH <dbl>, alk <dbl>
…
