…
hydro: bottle data from a hydrocast (like surfsamp but for subsurface samples)

ctd2: ctd data listed by cruise and station (temp, sal, etc.)

There are a couple of non-dataframe datasets which we can discuss if you need them

adcp: velocity data from ADCP

ctd: individual ctd data files in the oce format

Any of them can be accessed using the $ symbol. For example

S265$neuston

## # A tibble: 45 x 78
##    station dttm  tz    dttm_in                 dttm_out               
##    <chr>   <lgl> <lgl> <dttm>                  <dttm>                 
##  1 S265-0… NA    NA    2016-04-04 11:30:00.000 2016-04-04 12:00:00.000
##  2 S265-0… NA    NA    2016-04-05 00:15:00.000 2016-04-05 00:45:00.000
##  3 S265-0… NA    NA    2016-04-05 11:24:00.000 2016-04-05 11:54:00.000
##  4 S265-0… NA    NA    2016-04-05 22:47:00.000 2016-04-05 23:17:00.000
##  5 S265-0… NA    NA    2016-04-06 10:53:00.000 2016-04-06 11:24:00.000
##  6 S265-0… NA    NA    2016-04-06 23:33:00.000 2016-04-06 00:03:00.000
##  7 S265-0… NA    NA    2016-04-07 11:08:00.000 2016-04-07 11:38:00.000
##  8 S265-0… NA    NA    2016-04-07 23:31:00.000 2016-04-07 00:01:00.000
##  9 S265-0… NA    NA    2016-04-10 23:16:00.000 2016-04-10 23:46:00.000
## 10 S265-0… NA    NA    2016-04-11 23:41:00.000 2016-04-11 00:11:00.000
## # … with 35 more rows, and 73 more variables: date <date>, time_in <dbl>,
## #   utc_in <chr>, zd <dbl>, time_out <dbl>, lon <dbl>, lat <dbl>, temp <dbl>,
## #   sal <dbl>, fluor <dbl>, moon_phase <dbl>, moon_mode <chr>,
## #   cloud_cover <dbl>, wind <chr>, current <chr>, heading <dbl>,
## #   tow_dist <dbl>, biomass <dbl>, biodens <dbl>, phyl_num <int>,
## #   phyl_vol <dbl>, lept_num <int>, lept_vol <dbl>, myct_num <int>,
## #   myct_vol <dbl>, ceph_num <int>, ceph_vol <dbl>, nekt_other_num <int>,
## #   nekt_other_vol <dbl>, nekt_total_num <int>, nekt_total_vol <dbl>,
## #   nekt_info <chr>, halo_num <int>, gelat_num <int>, gelat_vol <dbl>,
…
