…
Typically, out goal with secondary axes is to show how things co-vary. This can be achieved in a scatter plot, but if you want to show the time series then a better option is multiple panels. ggplot doesn’t make this super easy, but here is an example to help you see how you could do this. The key is to use the gather() function from the tidyverse which can take multiple columns of data and gathers them together to be in two columns, one with the value of the data and the other to be the column heading. For example:

# Load tidyverse
library(tidyverse)
# Read in the data
df <- read_csv("~/Documents/SEA/S285_OC/dcv/R/classes/data/S258_hourly.csv")
# gather the data
df2 <- gather(df, key = "type", value = "value", temp, sal)

Looking at this data, you can see that temp and sal are now values in a column and their associated values are in another column.

df2

## # A tibble: 1,324 x 8
##    dttm                      lon   lat fluor wind_sp wind_dir type  value
##    <dttm>                  <dbl> <dbl> <dbl>   <dbl>    <dbl> <chr> <dbl>
##  1 2015-03-26 03:00:06.000  173. -43.6  6.28    6.9      210. temp   17.1
##  2 2015-03-26 04:00:07.000  173. -43.6  4.04    4.46     144. temp   17.5
##  3 2015-03-26 05:00:08.000  173. -43.6  5.01   13.4      187. temp   16.9
##  4 2015-03-26 06:00:08.000  173. -43.6  5.72   20.7      184. temp   16.0
##  5 2015-03-26 07:00:09.000  173. -43.5  4.56   20.0      192. temp   15.8
##  6 2015-03-26 08:00:10.000  174. -43.5  2.25   15.5      184. temp   15.3
##  7 2015-03-26 09:00:11.000  174. -43.5  2.98   14.4      178. temp   15.1
##  8 2015-03-26 10:00:12.000  174. -43.5  3.05   18.1      188. temp   14.6
##  9 2015-03-26 11:00:12.000  174. -43.4  3.1    12.3      174. temp   14.4
## 10 2015-03-26 12:00:13.000  174. -43.4  2.87   12.5      189. temp   14.5
## # … with 1,314 more rows
…
